<svg xmlns="http://www.w3.org/2000/svg" height="512" viewBox="0 -82 481.44 481" width="512">
  <path d="M445.61 124.93c-1-.957-2.184-1.7-3.485-2.172l-34.531-52.613a49.894 49.894 0 0 0-41.688-22.391h-46.8c-1.34-26.606-23.29-47.5-49.934-47.535H10c-5.523 0-10 4.476-10 10V255.94c0 5.524 4.477 10 10 10h33.422c4.754 28.997 29.808 50.278 59.191 50.278 29.38 0 54.434-21.281 59.192-50.278h145.199c4.754 28.997 29.809 50.282 59.191 50.282 29.38 0 54.438-21.285 59.192-50.282h46.054c5.52 0 10-4.476 10-10v-75.21a50.272 50.272 0 0 0-15.293-35.993zm-54.715-43.774l26.902 40.973h-98.625V67.758h46.734a29.897 29.897 0 0 1 24.989 13.398zM102.613 296.22c-22.086 0-39.988-17.903-39.988-39.989 0-22.085 17.902-39.988 39.988-39.988s39.989 17.903 39.989 39.988c-.024 22.075-17.914 39.965-39.989 39.989zm263.578 0c-22.086 0-39.988-17.903-39.988-39.989 0-22.085 17.902-39.988 39.988-39.988s39.989 17.903 39.989 39.988c-.024 22.075-17.914 39.965-39.989 39.989zm95.25-50.278h-36.16c-4.996-28.726-29.93-49.703-59.09-49.703s-54.093 20.977-59.086 49.703H161.703c-4.996-28.726-29.93-49.699-59.086-49.699-29.16 0-54.094 20.973-59.09 49.7H20V20.218h249.172c16.562.02 29.98 13.441 30 30v81.91c0 5.523 4.476 10 10 10h125.46l17.634 17.008a30.157 30.157 0 0 1 9.175 21.593zm0 0" fill="#b8a07e"/>
</svg>
